<?xml  version="1.0" encoding="UTF-8"?>
<!DOCTYPE svg PUBLIC "-//W3C//DTD SVG 1.0//EN" "http://www.w3.org/TR/2001/REC-SVG-20010904/DTD/svg10.dtd" >
<svg xmlns="http://www.w3.org/2000/svg" >
<metadata>
<version>1.0</version>
<id><![CDATA[Frutiger LT W01 56 Italic]]></id>
<vendor>Monotype Imaging Inc.</vendor>
<credits>
<name>Fonts.com WebFonts</name>
<URL>http://webfonts.fonts.com</URL>
<role>Home of the Web fonts</role>
</credits>
<license>
<URL>http://webfonts.fonts.com/Legal</URL>
</license>
<copyright><![CDATA[Copyright © 2014 Monotype Imaging Inc. All rights reserved.]]></copyright>
<trademark><![CDATA[Frutiger is a trademark of Monotype Imaging Inc. registered in the U.S. Patent and Trademark Office and may be registered in certain other jurisdictions.]]></trademark>
<licensee>
<name></name>
</licensee>
</metadata>
<defs >
<font horiz-adv-x="538" id="141c0322-57c4-48ca-abb4-31688d659f7d">
<font-face font-family="Frutiger LT W01 56 Italic" panose-1="2 11 6 2 2 2 4 9 2 4" ascent="933" descent="-250" units-per-em="1000" alphabetic="0">
</font-face>
<missing-glyph horiz-adv-x="512" d="M512 718V0H0V718H512ZM50 50H462V667H50V50ZM223 264Q223 301 233 325T276 385L292 402Q313 422 322 437T332 474Q332 510 310 534T256 559Q222 559 201 536T174 464L124 472Q130 538 165 573T259 609Q313 609 348 573T383 478Q383 442 369 416T319 357Q289 329 281 315T272 270L271 234H225Q225 236 224 244T223 264ZM278 184V117H222V184H278Z"  />

<glyph unicode="&#xA;" />
<glyph unicode="&#xD;" horiz-adv-x="278" />
<glyph unicode=" " horiz-adv-x="278" />
<glyph unicode="!" horiz-adv-x="389" d="M355 698L231 196H140L237 698H355ZM224 112L201 0H89L112 112H224Z"  />
<glyph unicode="&quot;" horiz-adv-x="556" d="M301 698V453H213V698H301ZM451 698V453H363V698H451Z"  />
<glyph unicode="#" horiz-adv-x="556" d="M226 208L197 0H121L150 208H44L55 284H161L179 414H72L83 490H190L219 698H295L266 490H384L413 698H489L460 490H566L555 414H449L431 284H537L526 208H420L391 0H315L344 208H226ZM235 284H353L371 414H253L235 284Z"  />
<glyph unicode="$" horiz-adv-x="556" d="M20 29L51 120Q132 76 206 76L261 327Q181 367 146 411T111 513Q111 604 175 656T345 710L366 806H425L403 710Q478 704 554 669L526 576Q454 620 384 621L336 405L392 372Q452 337 477 299T503 193Q503 131 468 85T374 14T243 -12L223 -103H167L186 -12Q98 -8 20 29ZM217 524Q217 467 284 431L326 622Q274 620 246 594T217 524ZM397 188Q397 229 378 251T313 300L262 76Q320 78 358 109T397 188Z"  />
<glyph unicode="%" horiz-adv-x="1000" d="M784 720L274 -22H204L714 720H784ZM112 497Q112 551 133 600T194 679T290 710Q362 710 398 670T434 557Q434 468 389 410T256 351Q189 351 151 390T112 497ZM352 563Q352 604 339 625T290 646Q242 646 218 602T194 497Q194 454 209 435T259 415Q307 415 329 459T352 563ZM549 134Q549 191 571 240T634 318T727 347Q796 347 833 308T871 194Q871 99 824 44T693 -12Q626 -12 588 27T549 134ZM789 200Q789 241 776 262T727 283Q679 283 655 240T631 134Q631 90 647 71T696 52Q744 52 766 97T789 200Z"  />
<glyph unicode="&amp;" horiz-adv-x="722" d="M307 -12Q194 -12 132 40T69 184Q69 260 122 315T269 393Q241 430 228 466T215 543Q215 592 243 630T316 689T410 710Q490 710 543 671T597 556Q597 484 548 437T400 355L511 190Q571 256 595 378H684Q656 207 560 117L636 0H525L491 53Q455 23 407 6T307 -12ZM509 549Q509 590 483 612T413 634Q369 634 339 607T309 533Q309 508 319 482T356 420Q428 440 468 473T509 549ZM169 189Q169 132 207 98T302 64Q338 64 376 79T445 122L312 326Q169 289 169 189Z"  />
<glyph unicode="&apos;" horiz-adv-x="278" d="M223 698V453H135V698H223Z"  />
<glyph unicode="(" horiz-adv-x="333" d="M83 270Q83 388 144 508T336 756H436Q297 617 237 491T177 217Q177 145 191 62T237 -140H154Q116 -20 100 77T83 270Z"  />
<glyph unicode=")" horiz-adv-x="333" d="M196 399Q196 471 183 553T136 756H219Q255 641 272 543T290 347Q290 107 37 -140H-63Q76 -1 136 126T196 399Z"  />
<glyph unicode="*" horiz-adv-x="556" d="M200 330L142 395L271 487L129 555L171 634L302 540L323 698L409 678L361 530L517 557L523 470H364L443 331L360 294L311 444L200 330Z"  />
<glyph unicode="+" horiz-adv-x="600" d="M62 209V297H271V506H359V297H568V209H359V0H271V209H62Z"  />
<glyph unicode="&#x2c;" horiz-adv-x="278" d="M177 112L38 -133H-56L57 112H177Z"  />
<glyph unicode="-" horiz-adv-x="333" d="M314 307L299 231H35L51 307H314Z"  />
<glyph unicode="." horiz-adv-x="278" d="M169 112L146 0H34L57 112H169Z"  />
<glyph unicode="/" horiz-adv-x="278" d="M328 710L88 -12H0L240 710H328Z"  />
<glyph unicode="0" horiz-adv-x="556" d="M47 216Q47 321 81 436T187 630T362 710Q455 710 503 652T552 484Q552 387 523 271T420 71T233 -12Q139 -12 93 51T47 216ZM452 490Q452 628 352 628Q284 628 237 554T169 380T147 210Q147 144 171 107T242 70Q312 70 360 146T430 322T452 490Z"  />
<glyph unicode="1" horiz-adv-x="556" d="M192 497L146 571L352 698H441L291 0H191L316 583L192 497Z"  />
<glyph unicode="2" horiz-adv-x="556" d="M425 528Q425 578 394 603T307 628Q225 628 145 584L154 675Q206 694 246 702T333 710Q424 710 477 666T531 542Q531 452 434 340T132 84V82H454L436 0H-2L20 102Q238 265 331 367T425 528Z"  />
<glyph unicode="3" horiz-adv-x="556" d="M476 215Q476 145 436 93T333 15T203 -12Q94 -12 6 19L30 108Q112 70 188 70Q235 70 278 86T348 135T376 218Q376 273 326 297T179 322H170L185 404Q311 404 374 437T437 537Q437 583 404 605T318 628Q279 628 235 619T152 593L162 685Q227 701 256 705T315 710Q425 710 481 668T537 544Q537 500 515 462T452 397T359 363V361Q412 348 444 310T476 215Z"  />
<glyph unicode="4" horiz-adv-x="556" d="M0 159L19 241L398 698H542L442 241H532L516 159H424L389 0H291L326 159H0ZM127 241H346L438 616H436L127 241Z"  />
<glyph unicode="5" horiz-adv-x="556" d="M189 70Q277 70 335 114T393 240Q393 299 351 328T240 357Q180 357 111 336L194 698H569L552 616H269L227 434Q266 439 285 439Q381 439 437 391T493 249Q493 165 455 106T349 18T194 -12Q155 -12 120 -7T36 10L53 99Q131 70 189 70Z"  />
<glyph unicode="6" horiz-adv-x="556" d="M441 628Q247 628 176 371L178 369Q212 405 250 422T336 439Q414 439 463 390T513 262Q513 182 483 120T396 23T262 -12Q163 -12 111 44T59 205Q59 318 96 435T220 631T433 710Q512 710 578 683L547 603Q500 628 441 628ZM413 249Q413 301 382 329T306 357Q264 357 230 332T178 265T159 178Q159 129 185 100T259 70Q306 70 341 97T394 166T413 249Z"  />
<glyph unicode="7" horiz-adv-x="556" d="M127 616L146 698H588L568 609L186 0H71L463 616H127Z"  />
<glyph unicode="8" horiz-adv-x="556" d="M503 210Q503 145 470 95T380 16T258 -12Q161 -12 97 33T32 166Q32 243 84 297T218 370Q173 399 149 438T124 523Q124 586 156 628T241 690T356 710Q408 710 455 693T532 639T562 549Q562 490 518 441T399 367Q453 333 478 296T503 210ZM462 541Q462 580 431 604T357 628Q308 628 266 602T224 522Q224 488 251 457T324 399L350 412Q406 440 434 468T462 541ZM132 182Q132 130 167 100T257 70Q295 70 328 87T382 136T403 206Q403 284 286 329Q215 310 174 271T132 182Z"  />
<glyph unicode="9" horiz-adv-x="556" d="M270 259Q220 259 180 280T116 342T93 437Q93 512 121 574T207 673T344 710Q443 710 495 655T547 494Q547 382 511 265T389 68T173 -12Q95 -12 28 15L59 95Q106 70 166 70Q359 70 430 327L428 329Q393 293 355 276T270 259ZM447 520Q447 566 422 597T346 628Q301 628 266 602T212 534T193 449Q193 397 224 369T299 341Q343 341 376 366T428 433T447 520Z"  />
<glyph unicode=":" horiz-adv-x="278" d="M251 510L228 398H116L139 510H251ZM169 112L146 0H34L57 112H169Z"  />
<glyph unicode=";" horiz-adv-x="278" d="M251 510L228 398H116L139 510H251ZM177 112L38 -133H-56L57 112H177Z"  />
<glyph unicode="&lt;" horiz-adv-x="600" d="M569 514V426L175 253L569 80V-8L61 215V291L569 514Z"  />
<glyph unicode="=" horiz-adv-x="600" d="M568 402V314H62V402H568ZM568 192V104H62V192H568Z"  />
<glyph unicode="&gt;" horiz-adv-x="600" d="M455 253L61 426V514L569 291V215L61 -8V80L455 253Z"  />
<glyph unicode="?" horiz-adv-x="500" d="M334 413Q378 446 396 475T415 538Q415 579 387 600T294 622Q261 622 228 615T152 593L163 686Q249 710 319 710Q412 710 466 670T521 547Q521 490 496 452T414 369Q396 353 387 346Q341 308 321 282T293 222L288 196H194Q209 262 222 293T258 349T334 413ZM282 112L259 0H147L170 112H282Z"  />
<glyph unicode="@" horiz-adv-x="800" d="M445 -12Q342 -12 258 31T124 156T75 349Q75 454 123 536T255 664T441 710Q531 710 607 672T729 566T775 413Q775 325 734 262T637 167T538 135Q514 135 498 150T480 191H478Q451 163 423 149T369 135Q328 135 294 156T241 215T221 295Q221 358 248 416T324 510T436 546Q510 546 550 480L565 532H640L577 293Q576 287 571 268T565 236Q565 211 583 211Q612 211 640 236T687 305T705 398Q705 473 670 527T575 611T440 640Q357 640 293 602T193 496T157 347Q157 255 194 190T297 92T450 58Q509 58 567 80T667 147H743Q695 73 616 31T445 -12ZM519 379Q519 416 497 440T441 464Q405 464 375 441T327 381T309 308Q309 267 331 242T391 217Q426 217 455 242T502 306T519 379Z"  />
<glyph unicode="A" horiz-adv-x="722" d="M192 176L80 0H-31L422 698H521L675 0H572L535 176H192ZM520 258L454 589L243 258H520Z"  />
<glyph unicode="B" horiz-adv-x="611" d="M382 698Q483 698 534 657T586 535Q586 469 548 424T443 361V359Q503 338 527 305T552 216Q552 162 523 113T430 32T267 0H46L197 698H382ZM486 521Q486 570 452 593T348 616H279L232 400H322Q390 400 438 430T486 521ZM446 218Q446 318 306 318H215L164 82H258Q350 82 398 116T446 218Z"  />
<glyph unicode="C" horiz-adv-x="611" d="M402 -12Q251 -12 163 70T74 307Q74 400 118 493T258 648T493 710Q580 710 659 678L630 592Q560 622 495 622Q396 622 325 579T217 463T180 302Q180 191 246 134T418 76Q485 76 543 100L530 7Q470 -12 402 -12Z"  />
<glyph unicode="D" horiz-adv-x="722" d="M347 698Q456 698 534 665T654 568T695 416Q695 286 642 193T488 50T251 0H42L190 698H347ZM589 405Q589 509 528 559T329 610H273L162 88H268Q364 88 436 127T549 237T589 405Z"  />
<glyph unicode="E" horiz-adv-x="556" d="M574 698L554 610H278L233 406H492L475 318H213L162 88H455L436 0H42L195 698H574Z"  />
<glyph unicode="F" horiz-adv-x="500" d="M556 698L539 610H272L228 406H474L455 318H209L140 0H38L190 698H556Z"  />
<glyph unicode="G" horiz-adv-x="722" d="M421 382H664L583 9Q492 -12 403 -12Q247 -12 161 72T74 307Q74 402 119 495T260 649T494 710Q611 710 707 670L677 584Q640 602 593 612T496 622Q394 622 323 578T216 460T180 302Q180 196 243 136T417 76Q440 76 464 78T501 85L547 300H401L421 382Z"  />
<glyph unicode="H" horiz-adv-x="722" d="M215 318L148 0H46L193 698H294L233 406H565L628 698H726L579 0H477L546 318H215Z"  />
<glyph unicode="I" horiz-adv-x="278" d="M289 698L139 0H38L188 698H289Z"  />
<glyph unicode="J" horiz-adv-x="389" d="M281 168Q266 99 238 60T167 5T58 -12Q41 -12 16 -7T-28 5L-10 96Q22 76 66 76Q121 76 149 110T191 210L299 698H398L281 168Z"  />
<glyph unicode="K" horiz-adv-x="667" d="M153 0H52L203 698H303L235 392L237 389L572 698H704L328 354L605 0H479L223 334L153 0Z"  />
<glyph unicode="L" horiz-adv-x="500" d="M290 698L158 88H448L430 0H38L189 698H290Z"  />
<glyph unicode="M" horiz-adv-x="944" d="M828 598L469 0H372L275 598H273L139 0H42L202 698H352L447 127L787 698H951L802 0H702L830 598H828Z"  />
<glyph unicode="N" horiz-adv-x="722" d="M257 580L138 0H42L187 698H319L516 113H518L642 698H737L585 0H456L259 580H257Z"  />
<glyph unicode="O" horiz-adv-x="778" d="M74 284Q74 384 119 482T255 645T468 710Q601 710 676 636T751 426Q751 311 706 211T574 50T367 -12Q223 -12 149 63T74 284ZM645 414Q645 515 600 568T465 622Q383 622 318 575T216 449T180 281Q180 187 228 132T371 76Q451 76 513 126T610 254T645 414Z"  />
<glyph unicode="P" horiz-adv-x="556" d="M361 698Q465 698 526 651T588 516Q588 446 554 392T455 309T299 279H199L138 0H38L190 698H361ZM482 501Q482 558 447 584T332 610H272L219 367H273Q379 367 430 400T482 501Z"  />
<glyph unicode="Q" horiz-adv-x="778" d="M367 -12Q223 -12 149 63T74 284Q74 386 120 484T257 646T469 710Q599 710 675 637T751 426Q751 330 720 245T630 97T489 8L613 -129H486L393 -10Q385 -12 367 -12ZM645 414Q645 516 600 569T464 622Q383 622 318 576T217 451T180 281Q180 187 229 132T371 76Q451 76 513 126T610 254T645 414Z"  />
<glyph unicode="R" horiz-adv-x="611" d="M301 310H207L142 0H42L191 698H353Q471 698 530 658T589 528Q589 482 567 442T506 374T419 339Q448 321 464 279T494 176L501 147L539 0H433L399 148Q382 221 372 252T346 296T301 310ZM483 515Q483 565 455 587T369 610H272L227 398H300Q380 398 431 426T483 515Z"  />
<glyph unicode="S" horiz-adv-x="500" d="M196 76Q244 76 278 93T330 139T347 200Q347 231 333 254T298 292T241 328Q197 354 170 376T126 432T109 511Q109 573 142 618T228 686T340 710Q428 710 508 677L480 588Q423 622 354 622Q292 622 254 595T215 514Q215 481 237 457T312 401Q386 357 419 315T453 212Q453 158 428 107T348 22T211 -12Q166 -12 120 -3T17 28L49 120Q81 100 120 88T196 76Z"  />
<glyph unicode="T" horiz-adv-x="556" d="M92 610L111 698H646L627 610H410L279 0H178L309 610H92Z"  />
<glyph unicode="U" horiz-adv-x="722" d="M646 288Q612 135 538 62T340 -12Q252 -12 197 22T118 104T94 200Q94 223 99 257T118 355L192 698H292L202 277Q194 240 194 215Q194 150 235 113T346 76Q432 76 480 139T556 330L636 698H736L646 288Z"  />
<glyph unicode="V" horiz-adv-x="667" d="M208 698L296 100H298L650 698H760L341 0H221L108 698H208Z"  />
<glyph unicode="W" horiz-adv-x="1000" d="M579 604L301 0H169L112 698H212L250 101H252L530 698H662L680 100H682L984 698H1091L726 0H596L581 604H579Z"  />
<glyph unicode="X" horiz-adv-x="667" d="M88 0H-36L299 373L129 698H237L375 431L609 698H736L428 360L612 0H501L353 302L88 0Z"  />
<glyph unicode="Y" horiz-adv-x="667" d="M106 698H216L355 382L630 698H757L391 292L331 0H233L293 292L106 698Z"  />
<glyph unicode="Z" horiz-adv-x="556" d="M463 610H120L138 698H603L587 609L127 88H488L471 0H-13L3 88L463 610Z"  />
<glyph unicode="[" horiz-adv-x="333" d="M405 756L389 686H290L126 -70H226L212 -140H19L213 756H405Z"  />
<glyph unicode="\" horiz-adv-x="278" d="M88 710L328 -12H240L0 710H88Z"  />
<glyph unicode="]" horiz-adv-x="333" d="M77 -70L241 686H141L155 756H348L154 -140H-38L-22 -70H77Z"  />
<glyph unicode="^" horiz-adv-x="600" d="M168 294H80L279 698H361L560 294H472L320 606L168 294Z"  />
<glyph unicode="_" horiz-adv-x="500" d="M500 -75V-125H0V-75H500Z"  />
<glyph unicode="`" horiz-adv-x="278" d="M205 725L272 581H205L104 725H205Z"  />
<glyph unicode="a" horiz-adv-x="556" d="M355 85Q332 40 287 14T189 -12Q119 -12 73 25T26 129Q26 222 99 268T327 315Q333 315 396 312Q401 335 401 346Q401 392 373 419T284 446Q245 446 205 435T128 403L145 496Q175 506 216 514T288 522Q381 522 435 481T489 360Q489 333 484 303T466 209Q442 98 427 0H340L357 85H355ZM126 133Q126 101 150 83T210 64Q273 64 319 116T376 245H306Q224 245 175 217T126 133Z"  />
<glyph unicode="b" horiz-adv-x="611" d="M288 750L225 455H227Q251 487 293 504T389 522Q470 522 520 469T571 327Q571 233 542 156T455 34T313 -12Q259 -12 226 1T175 35T142 85H140L123 0H35L194 750H288ZM471 319Q471 382 440 414T356 446Q304 446 263 412T198 320T174 199Q174 141 207 103T301 64Q353 64 392 101T451 197T471 319Z"  />
<glyph unicode="c" horiz-adv-x="444" d="M273 -12Q166 -12 107 44T47 202Q47 288 79 361T175 478T326 522Q399 522 457 502L434 421Q388 446 342 446Q284 446 240 415T171 330T147 215Q147 143 182 104T285 64Q329 64 388 87L371 0Q330 -12 273 -12Z"  />
<glyph unicode="d" horiz-adv-x="611" d="M412 78H410Q387 33 345 11T236 -12Q179 -12 137 15T71 91T47 203Q47 286 78 359T169 477T311 522Q368 522 411 497T475 426H477L544 750H638L515 182Q495 90 483 0H395Q407 61 412 78ZM443 304Q443 365 410 405T315 446Q264 446 226 409T167 316T147 209Q147 144 178 104T271 64Q328 64 366 104T424 200T443 304Z"  />
<glyph unicode="e" horiz-adv-x="556" d="M282 -12Q166 -12 107 46T47 217Q47 289 79 359T176 476T328 522Q417 522 467 471T518 327Q518 290 509 234H150Q147 218 147 202Q147 132 185 98T304 64Q371 64 448 95L433 9Q349 -12 282 -12ZM424 343Q424 388 397 417T315 446Q264 446 221 407T160 304H421Q424 327 424 343Z"  />
<glyph unicode="f" horiz-adv-x="389" d="M60 434L74 510H198L214 577Q235 665 282 713T413 762Q447 762 485 751L466 676Q458 680 444 683T420 686Q368 685 342 652T303 557L293 510H428L413 434H276L182 0H88L182 434H60Z"  />
<glyph unicode="g" horiz-adv-x="611" d="M245 0Q199 0 155 23T83 93T54 205Q54 293 86 365T176 480T310 522Q370 522 414 495T478 420H480L498 510H585L468 -37Q458 -83 426 -125T335 -195T194 -222Q157 -222 107 -212T23 -185L44 -101Q131 -146 207 -146Q352 -146 388 15L398 58H396Q371 26 334 13T245 0ZM443 306Q443 366 410 406T315 446Q265 446 229 409T173 317T154 209Q154 152 184 114T268 76Q315 76 355 102T419 180T443 306Z"  />
<glyph unicode="h" horiz-adv-x="611" d="M462 353Q462 394 437 420T369 446Q317 446 278 415T215 340T182 253L129 0H35L192 750H286L223 446H225Q250 483 293 502T386 522Q464 522 510 481T556 362Q556 329 544 269L488 0H394L454 290Q462 330 462 353Z"  />
<glyph unicode="i" horiz-adv-x="278" d="M296 730L274 624H168L190 730H296ZM243 510L135 0H41L149 510H243Z"  />
<glyph unicode="j" horiz-adv-x="278" d="M296 730L274 624H168L190 730H296ZM-51 -140Q-16 -140 2 -116T34 -31L149 510H243L120 -70Q104 -147 66 -184T-38 -222Q-53 -222 -77 -216T-110 -204L-93 -130Q-73 -140 -51 -140Z"  />
<glyph unicode="k" horiz-adv-x="556" d="M129 0H35L194 750H288L193 310H195L432 510H570L281 284L489 0H369L184 262L129 0Z"  />
<glyph unicode="l" horiz-adv-x="278" d="M294 750L135 0H41L200 750H294Z"  />
<glyph unicode="m" horiz-adv-x="889" d="M743 371Q743 403 724 424T668 446Q610 446 566 394T502 252L446 0H352L418 313Q426 350 426 371Q426 405 406 425T351 446Q294 446 249 393T184 247L129 0H35L126 438Q130 456 139 510H227L215 440H217Q244 480 286 501T378 522Q428 522 465 499T514 433Q553 479 595 500T694 522Q758 522 797 485T837 389Q837 354 827 306L763 0H669L738 328Q743 356 743 371Z"  />
<glyph unicode="n" horiz-adv-x="611" d="M462 353Q462 394 437 420T369 446Q299 446 249 388T182 252L129 0H35L123 427Q136 494 138 510H226L210 429H212Q240 474 285 498T386 522Q464 522 510 481T556 362Q556 327 544 269L488 0H394L454 291Q462 331 462 353Z"  />
<glyph unicode="o" horiz-adv-x="611" d="M47 215Q47 302 81 371T182 481T338 522Q442 522 503 462T564 299Q564 210 530 139T431 28T279 -12Q169 -12 108 47T47 215ZM464 299Q464 361 429 403T333 446Q276 446 234 411T170 321T147 208Q147 142 181 103T278 64Q329 64 372 98T439 186T464 299Z"  />
<glyph unicode="p" horiz-adv-x="611" d="M128 510H216L199 432H201Q228 478 277 500T382 522Q465 522 514 469T564 327Q564 230 534 153T446 32T307 -12Q177 -12 141 76H139L78 -210H-16L97 323Q116 417 128 510ZM464 319Q464 380 434 413T349 446Q298 446 257 412T191 320T167 199Q167 141 200 103T294 64Q344 64 382 99T442 193T464 319Z"  />
<glyph unicode="q" horiz-adv-x="611" d="M392 51Q345 -12 236 -12Q178 -12 136 16T70 92T47 203Q47 286 78 359T169 477T311 522Q369 522 413 496T478 420H480L498 510H585L432 -210H339L394 51H392ZM443 307Q443 367 409 406T315 446Q264 446 226 409T168 317T147 209Q147 144 178 104T271 64Q325 64 364 102T423 197T443 307Z"  />
<glyph unicode="r" horiz-adv-x="389" d="M138 510H226L210 429H212Q240 474 285 498T385 522Q407 522 429 513L408 430Q385 440 367 440Q316 440 277 410T215 336T182 251L129 0H35L123 428Q136 490 138 510Z"  />
<glyph unicode="s" horiz-adv-x="389" d="M131 64Q176 64 207 84T238 143Q238 169 219 189T152 241Q106 272 85 302T64 372Q64 422 92 456T165 506T256 522Q321 522 389 494L361 420Q307 446 259 446Q217 446 191 431T164 384Q164 365 174 350T196 326T242 294Q288 264 313 233T338 151Q338 94 309 58T235 5T144 -12Q100 -12 67 -7T-4 12L14 93Q48 79 75 72T131 64Z"  />
<glyph unicode="t" horiz-adv-x="389" d="M232 -12Q171 -12 141 21T110 101Q110 137 128 221L172 434H60L74 510H188L213 628L314 663L282 510H422L407 434H266L227 252Q204 147 204 119Q204 91 220 78T272 64Q287 64 306 67T338 77L324 -1Q310 -6 283 -9T232 -12Z"  />
<glyph unicode="u" horiz-adv-x="611" d="M407 81Q378 36 334 12T233 -12Q155 -12 109 29T63 148Q63 166 65 185T76 246L131 510H225L163 210Q157 178 157 157Q157 116 182 90T250 64Q303 64 342 95T405 171T436 253L490 510H584L496 83Q495 76 489 46T481 0H393L409 81H407Z"  />
<glyph unicode="v" horiz-adv-x="500" d="M169 510L221 98H223L450 510H550L259 0H149L69 510H169Z"  />
<glyph unicode="w" horiz-adv-x="833" d="M456 410L236 0H125L69 510H163L198 100H200L418 510H532L567 100H569L781 510H885L606 0H498L458 410H456Z"  />
<glyph unicode="x" horiz-adv-x="500" d="M75 0H-42L194 269L86 510H189L265 326L418 510H532L315 265L439 0H333L245 200L75 0Z"  />
<glyph unicode="y" horiz-adv-x="500" d="M229 103H231L453 510H554L207 -94Q181 -140 160 -166T108 -207T33 -222Q-4 -222 -38 -215L-22 -137Q-6 -146 19 -146Q62 -146 94 -116T154 -28L72 510H170L229 103Z"  />
<glyph unicode="z" horiz-adv-x="500" d="M373 434H90L105 510H509L490 428L124 76H426L409 0H-6L10 82L373 434Z"  />
<glyph unicode="{" horiz-adv-x="333" d="M58 -42Q58 -28 61 -14L99 161Q104 184 104 198Q104 236 84 254T37 273L52 343Q90 348 121 376T161 445L201 630Q215 694 251 725T342 756H420L405 686H355Q325 686 311 669T287 613L248 431Q235 374 200 344T129 309V307Q161 300 179 278T198 218Q198 207 193 179L155 -2Q152 -17 152 -30Q152 -48 159 -59T188 -70H239L225 -140H150Q110 -140 84 -113T58 -42Z"  />
<glyph unicode="|" horiz-adv-x="222" d="M180 750V-250H92V750H180Z"  />
<glyph unicode="}" horiz-adv-x="333" d="M-21 -70Q9 -70 23 -53T47 3L86 185Q99 242 134 272T205 307V309Q173 316 155 338T136 398Q136 410 141 437L179 618Q182 633 182 646Q182 664 175 675T146 686H95L109 756H184Q224 756 250 729T276 658Q276 644 273 630L235 455Q230 433 230 418Q230 380 250 362T297 343L282 273Q244 268 213 240T173 171L133 -14Q119 -78 83 -109T-8 -140H-86L-71 -70H-21Z"  />
<glyph unicode="~" horiz-adv-x="600" d="M421 177Q396 177 373 185T319 210Q287 228 261 237T205 246Q179 246 159 229T120 173L84 243Q107 286 137 307T209 328Q259 328 350 283Q378 270 393 265T422 259Q445 259 465 276T510 333L546 263Q515 217 486 197T421 177Z"  />
<glyph unicode="&#xA0;" horiz-adv-x="278" />
<glyph unicode="&#xA1;" horiz-adv-x="389" d="M300 510L277 398H165L188 510H300ZM249 314L152 -188H34L158 314H249Z"  />
<glyph unicode="&#xA2;" horiz-adv-x="556" d="M82 202Q82 290 115 363T212 479T361 522H371L407 634H463L426 517Q460 513 492 502L469 421Q439 438 403 441L284 68Q299 64 319 64Q364 64 423 87L406 0Q365 -12 309 -12Q281 -12 260 -8L220 -133H164L208 5Q147 27 115 76T82 202ZM182 215Q182 172 195 140T234 89L346 441Q271 428 227 365T182 215Z"  />
<glyph unicode="&#xA3;" horiz-adv-x="556" d="M121 88L177 348H92L104 406H189L203 466Q232 589 289 649T456 710Q539 710 597 681L573 598Q514 622 472 622Q396 622 359 581T301 457L289 406H451L441 348H277L221 88H470L453 0H9L26 88H121Z"  />
<glyph unicode="&#xA4;" horiz-adv-x="556" d="M298 101Q207 101 150 152L95 95L44 146L100 203Q50 262 50 349Q50 392 62 431T100 497L44 551L95 603L150 548Q178 571 218 584T298 597Q340 597 379 584T448 548L502 603L552 551L498 497Q521 471 533 432T546 349Q546 307 534 270T498 203L552 146L502 95L448 152Q419 127 380 114T298 101ZM458 349Q458 391 438 429T382 491T297 515Q253 515 217 492T159 431T138 349Q138 305 159 267T217 206T298 183Q343 183 379 206T437 267T458 349Z"  />
<glyph unicode="&#xA5;" horiz-adv-x="556" d="M181 0L213 162H74L85 220H224L238 292L232 308H103L114 366H211L91 698H195L297 381L529 698H629L386 366H493L482 308H343L331 292L317 220H464L453 162H306L274 0H181Z"  />
<glyph unicode="&#xA6;" horiz-adv-x="222" d="M180 675V325H92V675H180ZM180 175V-175H92V175H180Z"  />
<glyph unicode="&#xA7;" horiz-adv-x="556" d="M195 -42Q267 -42 306 -19T346 48Q346 78 322 96T244 137Q192 159 163 174T112 216T90 285Q90 330 117 366T205 441Q144 486 144 548Q144 589 166 626T239 686T366 710Q456 710 530 678L503 596Q440 628 366 628Q315 628 277 611T238 556Q238 526 265 505T357 455Q438 420 468 384T499 301Q499 258 472 224T385 156Q414 137 427 113T440 54Q440 6 414 -34T335 -99T201 -124Q91 -124 15 -90L42 -7Q88 -25 123 -33T195 -42ZM411 286Q411 315 389 333T318 376L259 405L236 387Q210 366 194 347T178 302Q178 279 205 258T276 218L332 192Q374 218 392 239T411 286Z"  />
<glyph unicode="&#xA8;" horiz-adv-x="278" d="M193 688L172 588H84L105 688H193ZM358 688L337 588H249L270 688H358Z"  />
<glyph unicode="&#xA9;" horiz-adv-x="800" d="M59 349Q59 446 107 529T238 661T420 710Q518 710 600 662T732 531T781 349Q781 250 732 167T600 36T420 -12Q322 -12 240 36T108 168T59 349ZM693 349Q693 429 658 496T560 601T419 640Q344 640 282 602T183 498T147 349Q147 266 183 200T282 96T420 58Q495 58 557 96T656 200T693 349ZM429 129Q369 129 323 157T250 235T224 349Q224 411 247 460T317 538T426 567Q496 567 544 526T602 417H529Q522 454 494 475T427 497Q367 497 334 457T300 351Q300 284 335 242T429 199Q468 199 495 220T529 285H602Q591 214 544 172T429 129Z"  />
<glyph unicode="&#xAA;" horiz-adv-x="361" d="M301 446Q286 418 257 403T192 388Q138 388 101 409T64 475Q64 536 119 564T256 593H321Q324 607 324 613Q324 629 307 637T255 646Q235 646 201 639T136 621L147 695Q226 710 274 710Q334 710 373 686T412 613Q412 592 407 564T394 503Q380 441 372 396H292L303 446H301ZM152 483Q152 466 169 459T207 452Q246 452 277 474T315 535H270Q221 535 187 523T152 483Z"  />
<glyph unicode="&#xAB;" horiz-adv-x="556" d="M227 471H331L143 269L289 67H192L44 269L227 471ZM426 471H530L342 269L488 67H391L243 269L426 471Z"  />
<glyph unicode="&#xAC;" horiz-adv-x="600" d="M62 314V402H568V107H480V314H62Z"  />
<glyph unicode="&#xAD;" horiz-adv-x="333" d="M314 307L299 231H35L51 307H314Z"  />
<glyph unicode="&#xAE;" horiz-adv-x="800" d="M59 349Q59 446 107 529T238 661T420 710Q518 710 600 662T732 531T781 349Q781 250 732 167T600 36T420 -12Q322 -12 240 36T108 168T59 349ZM693 349Q693 429 658 496T560 601T419 640Q344 640 282 602T183 498T147 349Q147 266 183 200T282 96T420 58Q495 58 557 96T656 200T693 349ZM357 322V146H281V555H434Q509 555 546 526T584 435Q584 335 477 325L587 146H509L403 322H357ZM508 441Q508 497 427 497H357V380H430Q471 380 489 394T508 441Z"  />
<glyph unicode="&#xAF;" horiz-adv-x="278" d="M362 673L351 615H81L93 673H362Z"  />
<glyph unicode="&#xB0;" horiz-adv-x="400" d="M107 567Q107 605 126 638T178 690T250 710Q288 710 321 691T373 639T393 567Q393 528 374 495T322 443T250 424Q211 424 178 443T126 495T107 567ZM250 646Q217 646 194 623T171 567Q171 534 194 511T250 488Q283 488 306 511T329 567Q329 600 306 623T250 646Z"  />
<glyph unicode="&#xB1;" horiz-adv-x="600" d="M271 124V271H62V359H271V506H359V359H568V271H359V124H271ZM568 88V0H62V88H568Z"  />
<glyph unicode="&#xB2;" horiz-adv-x="361" d="M136 531Q235 607 287 658T339 743Q339 786 275 786Q232 786 170 766L176 835Q236 856 291 856Q352 856 389 830T427 754Q427 705 379 650T249 536Q221 515 204 501V498H373L359 428H69L83 490L136 531Z"  />
<glyph unicode="&#xB3;" horiz-adv-x="361" d="M394 559Q394 516 366 485T294 438T208 422Q138 422 80 441L96 516Q133 492 199 492Q250 492 278 510T306 561Q306 591 272 602T187 612L196 682Q263 681 304 695T346 746Q346 765 328 775T282 786Q231 786 175 765L181 841Q187 842 218 849T281 856Q351 856 392 832T434 756Q434 714 397 684T309 647V645Q346 636 370 613T394 559Z"  />
<glyph unicode="&#xB4;" horiz-adv-x="278" d="M370 725L235 581H164L258 725H370Z"  />
<glyph unicode="&#xB5;" horiz-adv-x="611" d="M417 81Q359 -12 238 -12Q198 -12 174 -7T132 11L87 -210H-7L141 510H235L173 210Q167 182 167 157Q167 116 192 90T260 64Q314 64 354 96T416 172T445 249L500 510H594L502 63Q494 26 491 0H403L419 81H417Z"  />
<glyph unicode="&#xB6;" horiz-adv-x="600" d="M414 628L260 -112H173L266 333Q181 333 132 371T83 475Q83 550 121 600T223 674T362 698H633L464 -112H375L529 628H414Z"  />
<glyph unicode="&#xB7;" horiz-adv-x="278" d="M96 303Q96 327 113 344T155 362Q179 362 196 345T214 303Q214 278 197 261T155 244Q130 244 113 261T96 303Z"  />
<glyph unicode="&#xB8;" horiz-adv-x="278" d="M119 -182Q179 -182 179 -137Q179 -120 166 -110T133 -99Q114 -99 91 -109L74 -85L146 0H188L134 -61L136 -63Q150 -59 164 -59Q201 -59 228 -78T255 -135Q255 -175 218 -198T133 -222Q82 -222 37 -200L53 -164Q58 -166 80 -174T119 -182Z"  />
<glyph unicode="&#xB9;" horiz-adv-x="361" d="M190 729L155 774L289 850H370L275 428H190L264 774L190 729Z"  />
<glyph unicode="&#xBA;" horiz-adv-x="397" d="M242 388Q167 388 127 423T86 525Q86 576 107 617T173 684T281 710Q353 710 393 674T434 575Q434 493 383 441T242 388ZM346 562Q346 600 328 623T274 646Q228 646 201 613T174 526Q174 499 193 476T246 452Q288 452 317 482T346 562Z"  />
<glyph unicode="&#xBB;" horiz-adv-x="556" d="M86 471H183L331 269L148 67H44L232 269L86 471ZM285 471H382L530 269L347 67H243L431 269L285 471Z"  />
<glyph unicode="&#xBC;" horiz-adv-x="834" d="M656 720L221 -22H151L586 720H656ZM126 582L91 627L225 703H306L211 281H126L200 627L126 582ZM430 83L440 154L683 422H794L736 153H797L782 83H723L705 0H621L639 83H430ZM527 153H652L693 335H691L527 153Z"  />
<glyph unicode="&#xBD;" horiz-adv-x="834" d="M666 720L231 -22H161L596 720H666ZM116 582L81 627L215 703H296L201 281H116L190 627L116 582ZM517 103Q616 179 668 230T720 315Q720 358 656 358Q613 358 551 338L557 407Q617 428 672 428Q733 428 770 402T808 326Q808 276 760 221T630 108Q602 87 585 73V70H754L740 0H450L464 62L517 103Z"  />
<glyph unicode="&#xBE;" horiz-adv-x="834" d="M696 720L261 -22H191L626 720H696ZM344 412Q344 369 316 338T244 291T158 275Q88 275 30 294L46 369Q83 345 149 345Q200 345 228 363T256 414Q256 444 221 455T137 465L146 535Q211 534 253 548T296 599Q296 618 278 628T232 639Q180 639 125 618L131 694Q137 695 169 702T231 709Q301 709 342 685T384 609Q384 567 347 537T259 500V498Q296 489 320 466T344 412ZM433 83L443 154L686 422H797L739 153H800L785 83H726L708 0H624L642 83H433ZM530 153H655L696 335H694L530 153Z"  />
<glyph unicode="&#xBF;" horiz-adv-x="500" d="M353 510L330 398H218L241 510H353ZM181 -200Q83 -200 31 -158T-21 -37Q-21 18 3 56T80 136Q137 182 162 208T196 254T212 314H306L301 294Q288 240 279 217T250 169T186 112Q136 75 111 44T85 -28Q85 -70 114 -91T206 -112Q239 -112 272 -105T348 -83L337 -176Q250 -200 181 -200Z"  />
<glyph unicode="&#xC0;" horiz-adv-x="722" d="M192 176L80 0H-31L422 698H521L675 0H572L535 176H192ZM520 258L454 589L243 258H520ZM447 884L514 740H447L346 884H447Z"  />
<glyph unicode="&#xC1;" horiz-adv-x="722" d="M192 176L80 0H-31L422 698H521L675 0H572L535 176H192ZM520 258L454 589L243 258H520ZM643 884L508 740H437L531 884H643Z"  />
<glyph unicode="&#xC2;" horiz-adv-x="722" d="M192 176L80 0H-31L422 698H521L675 0H572L535 176H192ZM520 258L454 589L243 258H520ZM413 740H331L464 884H550L625 740H551L500 838L413 740Z"  />
<glyph unicode="&#xC3;" horiz-adv-x="722" d="M192 176L80 0H-31L422 698H521L675 0H572L535 176H192ZM520 258L454 589L243 258H520ZM574 754Q557 754 537 760T491 778Q466 789 449 794T416 800Q381 800 374 754H328Q335 808 359 837T422 866Q439 866 457 861T505 842Q530 831 548 826T581 820Q597 820 608 831T622 866H668Q661 812 637 783T574 754Z"  />
<glyph unicode="&#xC4;" horiz-adv-x="722" d="M192 176L80 0H-31L422 698H521L675 0H572L535 176H192ZM520 258L454 589L243 258H520ZM473 862L452 762H364L385 862H473ZM638 862L617 762H529L550 862H638Z"  />
<glyph unicode="&#xC5;" horiz-adv-x="722" d="M192 176L80 0H-31L422 698H521L675 0H572L535 176H192ZM520 258L454 589L243 258H520ZM379 831Q379 874 408 903T479 933Q521 933 550 904T580 831Q580 789 551 759T479 729Q437 729 408 759T379 831ZM540 831Q540 855 522 874T478 893Q455 893 437 875T419 831Q419 806 436 788T479 769Q503 769 521 788T540 831Z"  />
<glyph unicode="&#xC6;" horiz-adv-x="944" d="M228 176L87 0H-36L525 698H962L947 610H683L644 406H885L868 318H627L583 88H847L831 0H464L498 176H228ZM294 258H514L584 616H582L294 258Z"  />
<glyph unicode="&#xC7;" horiz-adv-x="611" d="M402 -12Q370 -12 347 -8L301 -61L303 -63Q317 -59 331 -59Q367 -59 394 -77T422 -135Q422 -176 385 -199T300 -222Q249 -222 204 -200L220 -164Q224 -166 238 -171T264 -179T286 -182Q346 -182 346 -137Q346 -120 333 -110T300 -99Q281 -99 258 -109L241 -85L311 -2Q195 21 135 100T74 307Q74 403 120 496T261 649T493 710Q580 710 659 678L630 592Q560 622 495 622Q396 622 325 579T217 462T180 302Q180 195 243 136T418 76Q485 76 543 100L530 7Q472 -12 402 -12Z"  />
<glyph unicode="&#xC8;" horiz-adv-x="556" d="M574 698L554 610H278L233 406H492L475 318H213L162 88H455L436 0H42L195 698H574ZM374 884L441 740H374L273 884H374Z"  />
<glyph unicode="&#xC9;" horiz-adv-x="556" d="M574 698L554 610H278L233 406H492L475 318H213L162 88H455L436 0H42L195 698H574ZM535 884L400 740H329L423 884H535Z"  />
<glyph unicode="&#xCA;" horiz-adv-x="556" d="M574 698L554 610H278L233 406H492L475 318H213L162 88H455L436 0H42L195 698H574ZM300 740H218L351 884H437L512 740H438L387 838L300 740Z"  />
<glyph unicode="&#xCB;" horiz-adv-x="556" d="M574 698L554 610H278L233 406H492L475 318H213L162 88H455L436 0H42L195 698H574ZM364 862L343 762H255L276 862H364ZM529 862L508 762H420L441 862H529Z"  />
<glyph unicode="&#xCC;" horiz-adv-x="278" d="M289 698L139 0H38L188 698H289ZM235 884L302 740H235L134 884H235Z"  />
<glyph unicode="&#xCD;" horiz-adv-x="278" d="M289 698L139 0H38L188 698H289ZM395 884L260 740H189L283 884H395Z"  />
<glyph unicode="&#xCE;" horiz-adv-x="278" d="M289 698L139 0H38L188 698H289ZM164 740H82L215 884H301L376 740H302L251 838L164 740Z"  />
<glyph unicode="&#xCF;" horiz-adv-x="278" d="M289 698L139 0H38L188 698H289ZM224 862L203 762H115L136 862H224ZM389 862L368 762H280L301 862H389Z"  />
<glyph unicode="&#xD0;" horiz-adv-x="722" d="M40 342L54 406H128L190 698H347Q456 698 534 665T654 568T695 416Q695 286 642 193T488 50T251 0H42L115 342H40ZM589 405Q589 509 528 559T329 610H273L230 406H410L396 342H216L162 88H268Q364 88 436 127T549 237T589 405Z"  />
<glyph unicode="&#xD1;" horiz-adv-x="722" d="M257 580L138 0H42L187 698H319L516 113H518L642 698H737L585 0H456L259 580H257ZM547 754Q530 754 510 760T464 778Q439 789 422 794T389 800Q354 800 347 754H301Q308 808 332 837T395 866Q412 866 430 861T478 842Q503 831 521 826T554 820Q570 820 581 831T595 866H641Q634 812 610 783T547 754Z"  />
<glyph unicode="&#xD2;" horiz-adv-x="778" d="M74 284Q74 384 119 482T255 645T468 710Q601 710 676 636T751 426Q751 311 706 211T574 50T367 -12Q223 -12 149 63T74 284ZM645 414Q645 515 600 568T465 622Q383 622 318 575T216 449T180 281Q180 187 228 132T371 76Q451 76 513 126T610 254T645 414ZM491 884L558 740H491L390 884H491Z"  />
<glyph unicode="&#xD3;" horiz-adv-x="778" d="M74 284Q74 384 119 482T255 645T468 710Q601 710 676 636T751 426Q751 311 706 211T574 50T367 -12Q223 -12 149 63T74 284ZM645 414Q645 515 600 568T465 622Q383 622 318 575T216 449T180 281Q180 187 228 132T371 76Q451 76 513 126T610 254T645 414ZM648 884L513 740H442L536 884H648Z"  />
<glyph unicode="&#xD4;" horiz-adv-x="778" d="M74 284Q74 384 119 482T255 645T468 710Q601 710 676 636T751 426Q751 311 706 211T574 50T367 -12Q223 -12 149 63T74 284ZM645 414Q645 515 600 568T465 622Q383 622 318 575T216 449T180 281Q180 187 228 132T371 76Q451 76 513 126T610 254T645 414ZM418 740H336L469 884H555L630 740H556L505 838L418 740Z"  />
<glyph unicode="&#xD5;" horiz-adv-x="778" d="M74 284Q74 384 119 482T255 645T468 710Q601 710 676 636T751 426Q751 311 706 211T574 50T367 -12Q223 -12 149 63T74 284ZM645 414Q645 515 600 568T465 622Q383 622 318 575T216 449T180 281Q180 187 228 132T371 76Q451 76 513 126T610 254T645 414ZM582 754Q565 754 545 760T499 778Q474 789 457 794T424 800Q389 800 382 754H336Q343 808 367 837T430 866Q447 866 465 861T513 842Q538 831 556 826T589 820Q605 820 616 831T630 866H676Q669 812 645 783T582 754Z"  />
<glyph unicode="&#xD6;" horiz-adv-x="778" d="M74 284Q74 384 119 482T255 645T468 710Q601 710 676 636T751 426Q751 311 706 211T574 50T367 -12Q223 -12 149 63T74 284ZM645 414Q645 515 600 568T465 622Q383 622 318 575T216 449T180 281Q180 187 228 132T371 76Q451 76 513 126T610 254T645 414ZM479 862L458 762H370L391 862H479ZM644 862L623 762H535L556 862H644Z"  />
<glyph unicode="&#xD7;" horiz-adv-x="600" d="M83 83L253 253L83 423L145 485L315 314L485 485L547 423L376 253L547 83L485 21L315 192L145 21L83 83Z"  />
<glyph unicode="&#xD8;" horiz-adv-x="778" d="M74 284Q74 387 120 485T258 647T470 710Q556 710 616 677L685 770L735 735L667 643Q751 570 751 427Q751 310 706 210T573 49T367 -12Q271 -12 208 21L131 -83L81 -48L158 56Q116 92 95 150T74 284ZM465 622Q383 622 318 576T217 451T180 281Q180 194 221 142L559 600Q521 622 465 622ZM371 76Q451 76 513 125T610 253T645 414Q645 508 605 560L267 101Q308 76 371 76Z"  />
<glyph unicode="&#xD9;" horiz-adv-x="722" d="M646 288Q612 135 538 62T340 -12Q252 -12 197 22T118 104T94 200Q94 223 99 257T118 355L192 698H292L202 277Q194 240 194 215Q194 150 235 113T346 76Q432 76 480 139T556 330L636 698H736L646 288ZM459 884L526 740H459L358 884H459Z"  />
<glyph unicode="&#xDA;" horiz-adv-x="722" d="M646 288Q612 135 538 62T340 -12Q252 -12 197 22T118 104T94 200Q94 223 99 257T118 355L192 698H292L202 277Q194 240 194 215Q194 150 235 113T346 76Q432 76 480 139T556 330L636 698H736L646 288ZM625 884L490 740H419L513 884H625Z"  />
<glyph unicode="&#xDB;" horiz-adv-x="722" d="M646 288Q612 135 538 62T340 -12Q252 -12 197 22T118 104T94 200Q94 223 99 257T118 355L192 698H292L202 277Q194 240 194 215Q194 150 235 113T346 76Q432 76 480 139T556 330L636 698H736L646 288ZM393 740H311L444 884H530L605 740H531L480 838L393 740Z"  />
<glyph unicode="&#xDC;" horiz-adv-x="722" d="M646 288Q612 135 538 62T340 -12Q252 -12 197 22T118 104T94 200Q94 223 99 257T118 355L192 698H292L202 277Q194 240 194 215Q194 150 235 113T346 76Q432 76 480 139T556 330L636 698H736L646 288ZM452 862L431 762H343L364 862H452ZM617 862L596 762H508L529 862H617Z"  />
<glyph unicode="&#xDD;" horiz-adv-x="667" d="M106 698H216L355 382L630 698H757L391 292L331 0H233L293 292L106 698ZM560 884L425 740H354L448 884H560Z"  />
<glyph unicode="&#xDE;" horiz-adv-x="556" d="M290 698L268 596H343Q438 596 502 551T567 414Q567 342 532 289T432 206T281 177H177L138 0H38L190 698H290ZM459 399Q459 457 424 482T311 508H249L196 265H253Q459 265 459 399Z"  />
<glyph unicode="&#xDF;" horiz-adv-x="611" d="M304 70Q349 70 383 93T437 155T457 241Q457 303 423 330T306 357L322 433Q367 433 405 450T467 500T491 578Q491 628 462 657T385 686Q330 686 293 644T236 505L129 0H35L144 517Q160 591 185 644T259 729T387 762Q474 762 529 717T585 580Q585 534 564 494T508 428T430 396V394Q489 387 523 347T557 242Q557 178 528 121T441 29T300 -6Q256 -6 201 4L218 81Q257 70 304 70Z"  />
<glyph unicode="&#xE0;" horiz-adv-x="556" d="M355 85Q332 40 287 14T189 -12Q119 -12 73 25T26 129Q26 222 99 268T327 315Q333 315 396 312Q401 335 401 346Q401 392 373 419T284 446Q245 446 205 435T128 403L145 496Q175 506 216 514T288 522Q381 522 435 481T489 360Q489 333 484 303T466 209Q442 98 427 0H340L357 85H355ZM126 133Q126 101 150 83T210 64Q273 64 319 116T376 245H306Q224 245 175 217T126 133ZM344 725L411 581H344L243 725H344Z"  />
<glyph unicode="&#xE1;" horiz-adv-x="556" d="M355 85Q332 40 287 14T189 -12Q119 -12 73 25T26 129Q26 222 99 268T327 315Q333 315 396 312Q401 335 401 346Q401 392 373 419T284 446Q245 446 205 435T128 403L145 496Q175 506 216 514T288 522Q381 522 435 481T489 360Q489 333 484 303T466 209Q442 98 427 0H340L357 85H355ZM126 133Q126 101 150 83T210 64Q273 64 319 116T376 245H306Q224 245 175 217T126 133ZM509 725L374 581H303L397 725H509Z"  />
<glyph unicode="&#xE2;" horiz-adv-x="556" d="M355 85Q332 40 287 14T189 -12Q119 -12 73 25T26 129Q26 222 99 268T327 315Q333 315 396 312Q401 335 401 346Q401 392 373 419T284 446Q245 446 205 435T128 403L145 496Q175 506 216 514T288 522Q381 522 435 481T489 360Q489 333 484 303T466 209Q442 98 427 0H340L357 85H355ZM126 133Q126 101 150 83T210 64Q273 64 319 116T376 245H306Q224 245 175 217T126 133ZM279 581H197L330 725H416L491 581H417L366 679L279 581Z"  />
<glyph unicode="&#xE3;" horiz-adv-x="556" d="M355 85Q332 40 287 14T189 -12Q119 -12 73 25T26 129Q26 222 99 268T327 315Q333 315 396 312Q401 335 401 346Q401 392 373 419T284 446Q245 446 205 435T128 403L145 496Q175 506 216 514T288 522Q381 522 435 481T489 360Q489 333 484 303T466 209Q442 98 427 0H340L357 85H355ZM126 133Q126 101 150 83T210 64Q273 64 319 116T376 245H306Q224 245 175 217T126 133ZM436 586Q420 586 400 592T354 610Q327 622 311 627T282 632Q243 632 236 586H190Q198 640 222 669T284 698Q301 698 321 692T366 674Q394 662 410 657T439 652Q477 652 484 698H530Q522 643 498 615T436 586Z"  />
<glyph unicode="&#xE4;" horiz-adv-x="556" d="M355 85Q332 40 287 14T189 -12Q119 -12 73 25T26 129Q26 222 99 268T327 315Q333 315 396 312Q401 335 401 346Q401 392 373 419T284 446Q245 446 205 435T128 403L145 496Q175 506 216 514T288 522Q381 522 435 481T489 360Q489 333 484 303T466 209Q442 98 427 0H340L357 85H355ZM126 133Q126 101 150 83T210 64Q273 64 319 116T376 245H306Q224 245 175 217T126 133ZM332 688L311 588H223L244 688H332ZM497 688L476 588H388L409 688H497Z"  />
<glyph unicode="&#xE5;" horiz-adv-x="556" d="M355 85Q332 40 287 14T189 -12Q119 -12 73 25T26 129Q26 222 99 268T327 315Q333 315 396 312Q401 335 401 346Q401 392 373 419T284 446Q245 446 205 435T128 403L145 496Q175 506 216 514T288 522Q381 522 435 481T489 360Q489 333 484 303T466 209Q442 98 427 0H340L357 85H355ZM126 133Q126 101 150 83T210 64Q273 64 319 116T376 245H306Q224 245 175 217T126 133ZM246 665Q246 707 275 737T346 767Q387 767 417 738T447 665Q447 623 418 593T346 563Q303 563 275 593T246 665ZM407 665Q407 690 389 708T346 727Q322 727 304 709T286 665Q286 640 303 622T346 603Q370 603 388 622T407 665Z"  />
<glyph unicode="&#xE6;" horiz-adv-x="889" d="M654 -12Q590 -12 549 -2T478 33T424 101Q394 49 336 19T210 -12Q125 -12 76 24T26 129Q26 222 99 268T328 315Q354 315 414 311Q418 327 418 345Q418 394 385 420T294 446Q219 446 129 406L147 497Q229 522 301 522Q374 522 419 499T483 434Q546 522 671 522Q762 522 812 471T863 327Q863 288 854 234H503Q500 224 500 200Q500 134 547 99T659 64Q722 64 793 94L780 10Q750 0 717 -6T654 -12ZM769 343Q769 391 741 418T661 446Q608 446 565 407T505 304H766Q769 327 769 343ZM126 133Q126 102 150 83T220 64Q288 64 334 110T398 245H308Q223 245 175 217T126 133Z"  />
<glyph unicode="&#xE7;" horiz-adv-x="444" d="M202 -182Q262 -182 262 -137Q262 -120 249 -110T216 -99Q197 -99 174 -109L157 -85L222 -8Q137 5 92 59T47 202Q47 288 79 361T175 478T326 522Q397 522 457 502L434 421Q388 446 342 446Q285 446 241 415T172 331T147 215Q147 143 182 104T285 64Q329 64 388 87L371 0Q330 -12 275 -12L261 -11L217 -61L219 -63Q233 -59 247 -59Q283 -59 310 -77T338 -135Q338 -177 301 -199T216 -222Q165 -222 120 -200L136 -164Q180 -182 202 -182Z"  />
<glyph unicode="&#xE8;" horiz-adv-x="556" d="M282 -12Q166 -12 107 46T47 217Q47 289 79 359T176 476T328 522Q417 522 467 471T518 327Q518 290 509 234H150Q147 218 147 202Q147 132 185 98T304 64Q371 64 448 95L433 9Q349 -12 282 -12ZM424 343Q424 388 397 417T315 446Q264 446 221 407T160 304H421Q424 327 424 343ZM344 725L411 581H344L243 725H344Z"  />
<glyph unicode="&#xE9;" horiz-adv-x="556" d="M282 -12Q166 -12 107 46T47 217Q47 289 79 359T176 476T328 522Q417 522 467 471T518 327Q518 290 509 234H150Q147 218 147 202Q147 132 185 98T304 64Q371 64 448 95L433 9Q349 -12 282 -12ZM424 343Q424 388 397 417T315 446Q264 446 221 407T160 304H421Q424 327 424 343ZM509 725L374 581H303L397 725H509Z"  />
<glyph unicode="&#xEA;" horiz-adv-x="556" d="M282 -12Q166 -12 107 46T47 217Q47 289 79 359T176 476T328 522Q417 522 467 471T518 327Q518 290 509 234H150Q147 218 147 202Q147 132 185 98T304 64Q371 64 448 95L433 9Q349 -12 282 -12ZM424 343Q424 388 397 417T315 446Q264 446 221 407T160 304H421Q424 327 424 343ZM279 581H197L330 725H416L491 581H417L366 679L279 581Z"  />
<glyph unicode="&#xEB;" horiz-adv-x="556" d="M282 -12Q166 -12 107 46T47 217Q47 289 79 359T176 476T328 522Q417 522 467 471T518 327Q518 290 509 234H150Q147 218 147 202Q147 132 185 98T304 64Q371 64 448 95L433 9Q349 -12 282 -12ZM424 343Q424 388 397 417T315 446Q264 446 221 407T160 304H421Q424 327 424 343ZM332 688L311 588H223L244 688H332ZM497 688L476 588H388L409 688H497Z"  />
<glyph unicode="&#xEC;" horiz-adv-x="278" d="M243 510L135 0H41L149 510H243ZM205 725L272 581H205L104 725H205Z"  />
<glyph unicode="&#xED;" horiz-adv-x="278" d="M243 510L135 0H41L149 510H243ZM370 725L235 581H164L258 725H370Z"  />
<glyph unicode="&#xEE;" horiz-adv-x="278" d="M243 510L135 0H41L149 510H243ZM140 581H58L191 725H277L352 581H278L227 679L140 581Z"  />
<glyph unicode="&#xEF;" horiz-adv-x="278" d="M243 510L135 0H41L149 510H243ZM193 688L172 588H84L105 688H193ZM358 688L337 588H249L270 688H358Z"  />
<glyph unicode="&#xF0;" horiz-adv-x="611" d="M342 616L215 557L172 608L287 662Q259 682 212 709L284 762Q334 733 374 702L504 762L547 711L426 655Q497 583 530 495T564 299Q564 210 530 140T432 29T279 -12Q169 -12 108 47T47 215Q47 303 82 372T183 482T337 522Q391 522 428 500H430Q396 565 342 616ZM464 299Q464 361 429 403T333 446Q276 446 234 411T169 321T147 208Q147 142 181 103T278 64Q330 64 373 99T440 188T464 299Z"  />
<glyph unicode="&#xF1;" horiz-adv-x="611" d="M462 353Q462 394 437 420T369 446Q299 446 249 388T182 252L129 0H35L123 427Q136 494 138 510H226L210 429H212Q240 474 285 498T386 522Q464 522 510 481T556 362Q556 327 544 269L488 0H394L454 291Q462 331 462 353ZM464 586Q448 586 428 592T382 610Q355 622 339 627T310 632Q271 632 264 586H218Q226 640 250 669T312 698Q329 698 349 692T394 674Q422 662 438 657T467 652Q505 652 512 698H558Q550 643 526 615T464 586Z"  />
<glyph unicode="&#xF2;" horiz-adv-x="611" d="M47 215Q47 302 81 371T182 481T338 522Q442 522 503 462T564 299Q564 210 530 139T431 28T279 -12Q169 -12 108 47T47 215ZM464 299Q464 361 429 403T333 446Q276 446 234 411T170 321T147 208Q147 142 181 103T278 64Q329 64 372 98T439 186T464 299ZM372 725L439 581H372L271 725H372Z"  />
<glyph unicode="&#xF3;" horiz-adv-x="611" d="M47 215Q47 302 81 371T182 481T338 522Q442 522 503 462T564 299Q564 210 530 139T431 28T279 -12Q169 -12 108 47T47 215ZM464 299Q464 361 429 403T333 446Q276 446 234 411T170 321T147 208Q147 142 181 103T278 64Q329 64 372 98T439 186T464 299ZM537 725L402 581H331L425 725H537Z"  />
<glyph unicode="&#xF4;" horiz-adv-x="611" d="M47 215Q47 302 81 371T182 481T338 522Q442 522 503 462T564 299Q564 210 530 139T431 28T279 -12Q169 -12 108 47T47 215ZM464 299Q464 361 429 403T333 446Q276 446 234 411T170 321T147 208Q147 142 181 103T278 64Q329 64 372 98T439 186T464 299ZM307 581H225L358 725H444L519 581H445L394 679L307 581Z"  />
<glyph unicode="&#xF5;" horiz-adv-x="611" d="M47 215Q47 302 81 371T182 481T338 522Q442 522 503 462T564 299Q564 210 530 139T431 28T279 -12Q169 -12 108 47T47 215ZM464 299Q464 361 429 403T333 446Q276 446 234 411T170 321T147 208Q147 142 181 103T278 64Q329 64 372 98T439 186T464 299ZM464 586Q448 586 428 592T382 610Q355 622 339 627T310 632Q271 632 264 586H218Q226 640 250 669T312 698Q329 698 349 692T394 674Q422 662 438 657T467 652Q505 652 512 698H558Q550 643 526 615T464 586Z"  />
<glyph unicode="&#xF6;" horiz-adv-x="611" d="M47 215Q47 302 81 371T182 481T338 522Q442 522 503 462T564 299Q564 210 530 139T431 28T279 -12Q169 -12 108 47T47 215ZM464 299Q464 361 429 403T333 446Q276 446 234 411T170 321T147 208Q147 142 181 103T278 64Q329 64 372 98T439 186T464 299ZM360 688L339 588H251L272 688H360ZM525 688L504 588H416L437 688H525Z"  />
<glyph unicode="&#xF7;" horiz-adv-x="600" d="M239 460Q239 491 261 514T316 537Q346 537 369 514T392 460Q392 431 369 408T317 384Q285 384 262 406T239 460ZM568 297V209H62V297H568ZM239 46Q239 78 262 100T316 122Q346 122 369 100T392 46Q392 16 369 -7T317 -31Q285 -31 262 -8T239 46Z"  />
<glyph unicode="&#xF8;" horiz-adv-x="611" d="M47 215Q47 302 81 371T182 481T338 522Q398 522 446 499L507 582L552 549L493 470Q527 442 545 399T564 299Q564 209 530 138T431 28T279 -12Q207 -12 156 15L92 -72L47 -39L110 46Q47 104 47 215ZM333 446Q275 446 233 411T169 320T147 208Q147 158 167 123L395 431Q368 446 333 446ZM278 64Q330 64 372 98T439 188T464 299Q464 353 436 393L206 83Q238 64 278 64Z"  />
<glyph unicode="&#xF9;" horiz-adv-x="611" d="M407 81Q378 36 334 12T233 -12Q155 -12 109 29T63 148Q63 166 65 185T76 246L131 510H225L163 210Q157 178 157 157Q157 116 182 90T250 64Q303 64 342 95T405 171T436 253L490 510H584L496 83Q495 76 489 46T481 0H393L409 81H407ZM372 725L439 581H372L271 725H372Z"  />
<glyph unicode="&#xFA;" horiz-adv-x="611" d="M407 81Q378 36 334 12T233 -12Q155 -12 109 29T63 148Q63 166 65 185T76 246L131 510H225L163 210Q157 178 157 157Q157 116 182 90T250 64Q303 64 342 95T405 171T436 253L490 510H584L496 83Q495 76 489 46T481 0H393L409 81H407ZM537 725L402 581H331L425 725H537Z"  />
<glyph unicode="&#xFB;" horiz-adv-x="611" d="M407 81Q378 36 334 12T233 -12Q155 -12 109 29T63 148Q63 166 65 185T76 246L131 510H225L163 210Q157 178 157 157Q157 116 182 90T250 64Q303 64 342 95T405 171T436 253L490 510H584L496 83Q495 76 489 46T481 0H393L409 81H407ZM307 581H225L358 725H444L519 581H445L394 679L307 581Z"  />
<glyph unicode="&#xFC;" horiz-adv-x="611" d="M407 81Q378 36 334 12T233 -12Q155 -12 109 29T63 148Q63 166 65 185T76 246L131 510H225L163 210Q157 178 157 157Q157 116 182 90T250 64Q303 64 342 95T405 171T436 253L490 510H584L496 83Q495 76 489 46T481 0H393L409 81H407ZM360 688L339 588H251L272 688H360ZM525 688L504 588H416L437 688H525Z"  />
<glyph unicode="&#xFD;" horiz-adv-x="500" d="M229 103H231L453 510H554L207 -94Q181 -140 160 -166T108 -207T33 -222Q-4 -222 -38 -215L-22 -137Q-6 -146 19 -146Q62 -146 94 -116T154 -28L72 510H170L229 103ZM481 725L346 581H275L369 725H481Z"  />
<glyph unicode="&#xFE;" horiz-adv-x="611" d="M281 750L218 455H220Q244 486 286 504T382 522Q465 522 514 468T564 327Q564 230 534 153T446 32T307 -12Q177 -12 141 76H139L78 -210H-16L187 750H281ZM464 319Q464 379 434 412T349 446Q297 446 256 411T191 319T167 199Q167 141 200 103T294 64Q346 64 385 101T444 197T464 319Z"  />
<glyph unicode="&#xFF;" horiz-adv-x="500" d="M229 103H231L453 510H554L207 -94Q181 -140 160 -166T108 -207T33 -222Q-4 -222 -38 -215L-22 -137Q-6 -146 19 -146Q62 -146 94 -116T154 -28L72 510H170L229 103ZM304 688L283 588H195L216 688H304ZM469 688L448 588H360L381 688H469Z"  />
<glyph unicode="&#x131;" horiz-adv-x="278" d="M243 510L135 0H41L149 510H243Z"  />
<glyph unicode="&#x152;" horiz-adv-x="944" d="M722 698H962L944 610H679L635 406H884L868 318H616L566 88H847L831 0H565Q540 0 473 -3T385 -6Q291 -6 221 34T112 143T74 293Q74 423 132 516T288 656T507 704Q540 704 614 701T722 698ZM496 616Q408 616 336 577T222 468T180 312Q180 206 239 144T403 82Q429 82 468 88L580 610Q534 616 496 616Z"  />
<glyph unicode="&#x153;" horiz-adv-x="944" d="M695 -12Q611 -12 559 17T478 104Q447 51 390 20T272 -12Q162 -12 102 47T41 215Q41 303 76 372T177 482T332 522Q403 522 450 493T513 412Q537 465 590 493T711 522Q802 522 852 471T903 327Q903 287 894 234H543Q540 219 540 200Q540 136 586 100T699 64Q762 64 833 94L820 10Q792 0 758 -6T695 -12ZM458 299Q458 361 423 403T327 446Q272 446 229 411T164 321T141 208Q141 142 175 103T272 64Q322 64 365 97T433 185T458 299ZM809 343Q809 391 781 418T701 446Q650 446 607 408T545 304H806Q809 327 809 343Z"  />
<glyph unicode="&#x160;" horiz-adv-x="500" d="M196 76Q244 76 278 93T330 139T347 200Q347 231 333 254T298 292T241 328Q197 354 170 376T126 432T109 511Q109 573 142 618T228 686T340 710Q428 710 508 677L480 588Q423 622 354 622Q292 622 254 595T215 514Q215 481 237 457T312 401Q386 357 419 315T453 212Q453 158 428 107T348 22T211 -12Q166 -12 120 -3T17 28L49 120Q81 100 120 88T196 76ZM276 884L327 786L414 884H496L363 740H277L202 884H276Z"  />
<glyph unicode="&#x161;" horiz-adv-x="389" d="M131 64Q176 64 207 84T238 143Q238 169 219 189T152 241Q106 272 85 302T64 372Q64 422 92 456T165 506T256 522Q321 522 389 494L361 420Q307 446 259 446Q217 446 191 431T164 384Q164 365 174 350T196 326T242 294Q288 264 313 233T338 151Q338 94 309 58T235 5T144 -12Q100 -12 67 -7T-4 12L14 93Q48 79 75 72T131 64ZM227 725L278 627L365 725H447L314 581H228L153 725H227Z"  />
<glyph unicode="&#x178;" horiz-adv-x="667" d="M106 698H216L355 382L630 698H757L391 292L331 0H233L293 292L106 698ZM423 850L402 750H314L335 850H423ZM588 850L567 750H479L500 850H588Z"  />
<glyph unicode="&#x17D;" horiz-adv-x="556" d="M463 610H120L138 698H603L587 609L127 88H488L471 0H-13L3 88L463 610ZM306 884L357 786L444 884H526L393 740H307L232 884H306Z"  />
<glyph unicode="&#x17E;" horiz-adv-x="500" d="M373 434H90L105 510H509L490 428L124 76H426L409 0H-6L10 82L373 434ZM282 725L333 627L420 725H502L369 581H283L208 725H282Z"  />
<glyph unicode="&#x192;" horiz-adv-x="556" d="M94 -140Q118 -140 131 -134T152 -110T168 -57L249 344H137L149 414H261L278 491Q301 597 340 653T452 710Q504 710 542 695L522 606Q495 628 463 628Q433 628 415 605T387 537L361 414H477L465 344H349L283 -4Q268 -85 250 -130T195 -198T95 -222Q49 -222 16 -207L32 -120Q63 -140 94 -140Z"  />
<glyph unicode="&#x2C6;" horiz-adv-x="278" d="M140 581H58L191 725H277L352 581H278L227 679L140 581Z"  />
<glyph unicode="&#x2C7;" horiz-adv-x="278" d="M171 725L222 627L309 725H391L258 581H172L97 725H171Z"  />
<glyph unicode="&#x2DA;" horiz-adv-x="278" d="M121 665Q121 707 150 737T221 767Q262 767 292 738T322 665Q322 623 293 593T221 563Q178 563 150 593T121 665ZM282 665Q282 690 264 708T221 727Q197 727 179 709T161 665Q161 640 178 622T221 603Q245 603 263 622T282 665Z"  />
<glyph unicode="&#x2DC;" horiz-adv-x="278" d="M297 586Q281 586 261 592T215 610Q188 622 172 627T143 632Q104 632 97 586H51Q59 640 83 669T145 698Q162 698 182 692T227 674Q255 662 271 657T300 652Q338 652 345 698H391Q383 643 359 615T297 586Z"  />
<glyph unicode="&#x2013;" horiz-adv-x="500" d="M514 304L499 234H-1L14 304H514Z"  />
<glyph unicode="&#x2014;" horiz-adv-x="1000" d="M1014 304L999 234H-1L14 304H1014Z"  />
<glyph unicode="&#x2018;" horiz-adv-x="278" d="M324 698L209 453H90L228 698H324Z"  />
<glyph unicode="&#x2019;" horiz-adv-x="278" d="M324 698L186 453H90L205 698H324Z"  />
<glyph unicode="&#x201A;" horiz-adv-x="278" d="M178 112L40 -133H-56L59 112H178Z"  />
<glyph unicode="&#x201C;" horiz-adv-x="556" d="M365 698L250 453H131L269 698H365ZM561 698L446 453H327L465 698H561Z"  />
<glyph unicode="&#x201D;" horiz-adv-x="556" d="M365 698L227 453H131L246 698H365ZM561 698L423 453H327L442 698H561Z"  />
<glyph unicode="&#x201E;" horiz-adv-x="556" d="M239 112L101 -133H5L120 112H239ZM435 112L297 -133H201L316 112H435Z"  />
<glyph unicode="&#x2020;" horiz-adv-x="556" d="M105 453L120 523H294L332 698H420L382 523H556L541 453H367L270 0H182L279 453H105Z"  />
<glyph unicode="&#x2021;" horiz-adv-x="556" d="M182 0L217 162H43L58 232H232L282 466H109L124 536H297L332 698H420L385 536H559L544 466H370L320 232H493L478 162H305L270 0H182Z"  />
<glyph unicode="&#x2022;" horiz-adv-x="500" d="M96 349Q96 396 119 436T183 499T270 523Q317 523 357 500T421 437T445 349Q445 301 421 261T357 198T270 174Q223 174 183 197T120 261T96 349Z"  />
<glyph unicode="&#x2026;" horiz-adv-x="1000" d="M206 112L183 0H71L94 112H206ZM539 112L516 0H404L427 112H539ZM872 112L849 0H737L760 112H872Z"  />
<glyph unicode="&#x2030;" horiz-adv-x="1000" d="M642 720L132 -22H62L572 720H642ZM69 514Q69 567 89 612T148 683T239 710Q300 710 331 676T363 576Q363 495 320 440T197 384Q139 384 104 419T69 514ZM281 580Q281 646 228 646Q186 646 169 603T151 512Q151 480 163 464T205 448Q243 448 262 489T281 580ZM338 118Q338 171 358 216T417 287T508 314Q569 314 600 280T632 180Q632 99 589 44T466 -12Q408 -12 373 23T338 118ZM675 118Q675 171 695 216T754 287T845 314Q906 314 937 280T969 180Q969 99 926 44T803 -12Q745 -12 710 23T675 118ZM550 184Q550 250 497 250Q455 250 438 207T420 116Q420 84 432 68T474 52Q512 52 531 93T550 184ZM887 184Q887 250 834 250Q792 250 775 207T757 116Q757 84 769 68T811 52Q849 52 868 93T887 184Z"  />
<glyph unicode="&#x2039;" horiz-adv-x="333" d="M214 471H318L130 269L276 67H179L31 269L214 471Z"  />
<glyph unicode="&#x203A;" horiz-adv-x="333" d="M73 471H170L318 269L135 67H31L219 269L73 471Z"  />
<glyph unicode="&#x20AC;" horiz-adv-x="556" d="M366 -12Q238 -12 167 59T95 253H0L24 307H99Q105 352 117 391H29L53 445H136Q189 567 293 638T520 710Q605 710 667 684L630 601Q608 613 574 620T511 628Q429 628 359 580T246 445H564L540 391H223Q210 351 205 307H504L481 253H206Q211 167 260 120T392 72Q465 72 522 97L510 10Q451 -12 366 -12Z"  />
<glyph unicode="&#x2122;" horiz-adv-x="990" d="M89 628V698H421V628H293V282H217V628H89ZM893 600L776 282H714L597 600H595V282H519V698H637L746 417L853 698H971V282H895V600H893Z"  />
<glyph unicode="&#xE300;" horiz-adv-x="278" d="M235 884L302 740H235L134 884H235Z"  />
<glyph unicode="&#xE301;" horiz-adv-x="278" d="M394 884L259 740H188L282 884H394Z"  />
<glyph unicode="&#xE302;" horiz-adv-x="278" d="M168 740H86L219 884H305L380 740H306L255 838L168 740Z"  />
<glyph unicode="&#xE303;" horiz-adv-x="278" d="M203 884L254 786L341 884H423L290 740H204L129 884H203Z"  />
<glyph unicode="&#xE304;" horiz-adv-x="278" d="M332 754Q315 754 295 760T249 778Q224 789 207 794T174 800Q139 800 132 754H86Q93 808 117 837T180 866Q197 866 215 861T263 842Q288 831 306 826T339 820Q355 820 366 831T380 866H426Q419 812 395 783T332 754Z"  />
<glyph unicode="&#xE305;" horiz-adv-x="278" d="M224 862L203 762H115L136 862H224ZM389 862L368 762H280L301 862H389Z"  />
<glyph unicode="&#xE308;" horiz-adv-x="278" d="M156 831Q156 874 185 903T256 933Q298 933 327 904T357 831Q357 789 328 759T256 729Q214 729 185 759T156 831ZM317 831Q317 855 299 874T255 893Q232 893 214 875T196 831Q196 806 213 788T256 769Q280 769 298 788T317 831Z"  />


</font>
</defs>
<text x="40" y="40" font-family="Frutiger LT W01 56 Italic" font-size="30" fill="#933" >ABCDEFGHIJKLMNOPQRSTUVWXYZ abcdefghijklmnopqrstuvwxyz AÁÀÂÄÅÃÆ CÇ DÐ EÉÈÊË I Í Ì Î Ï NÑ</text>
<text x="40" y="80" font-family="Frutiger LT W01 56 Italic" font-size="30" fill="#933" >OÓÒÔÖÕØŒ SŠ UÚÙÛÜ YÝŸ ZŽ Þ aáàâäåãæ cç dð eéèêë i ı í ì î ï nñ oóòôöõøœ sšß uúùûü yýÿ zž</text>
<text x="40" y="120" font-family="Frutiger LT W01 56 Italic" font-size="30" fill="#933" >þ 1234567890 ½ ¼ ¾ % ‰ $¢£¥ƒ€¤ † ‡ § ¶ # ^~µ +×± &lt; = &gt; ÷¬ !¡?¿ &quot; &amp; &apos; * ° . , : ; () [ \ ] {} / |</text>
<text x="40" y="160" font-family="Frutiger LT W01 56 Italic" font-size="30" fill="#933" >¦ _ ‚ „ … ‹› «» ‘ ’ “ ” • ­ - – — @ © ® ™ ªº ¹²³ ´ ` ˆ ˜ ¨ ¯ · ¸</text>
</svg>
