{
    "modules": [
        {
            "config": {
                "position": [
                    67,
                    63
                ]
            },
            "name": "New Model Object",
            "value": {
                "actionGroup": {
                    "_default0_list": false,
                    "_default1_show": true,
                    "_default2_new_create": false,
                    "_default3_edit_update": true,
                    "_default4_delete": false,
                    "customActions": []
                },
                "name": "User",
                "objectsettings": {
                    "addDeletedField": true,
                    "addHiddenField": true,
                    "addStarttimeEndtimeFields": true,
                    "aggregateRoot": true,
                    "categorizable": false,
                    "description": "",
                    "mapToTable": "",
                    "parentClass": "",
                    "sorting": false,
                    "type": "Entity",
                    "uid": "820762174249"
                },
                "propertyGroup": {
                    "properties": []
                },
                "relationGroup": {
                    "relations": []
                }
            }
        }
    ],
    "properties": {
        "backendModules": [],
        "description": "",
        "emConf": {
            "category": "plugin",
            "custom_category": "",
            "dependsOn": "typo3 => 8.6.0-8.6.99\n",
            "disableLocalization": false,
            "disableVersioning": false,
            "skipGenerateDocumentationTemplate": false,
            "sourceLanguage": "en",
            "state": "alpha",
            "targetVersion": "8.6.0-8.6.99",
            "version": "1.0.0"
        },
        "extensionKey": "cc_feuser",
        "name": "Corporate Campus Feuser",
        "originalExtensionKey": "",
        "originalVendorName": "",
        "persons": [],
        "plugins": [
            {
                "actions": {
                    "controllerActionCombinations": "",
                    "noncacheableActions": "",
                    "switchableActions": ""
                },
                "key": "feuser",
                "name": "Feuser"
            }
        ],
        "vendorName": "Netfed"
    },
    "wires": [],
    "log": {
        "last_modified": "2017-07-20 10:17",
        "extension_builder_version": "8.6.0",
        "be_user": " (1)"
    }
}