{
    "modules": [
        {
            "config": {
                "position": [
                    992,
                    157
                ]
            },
            "name": "New Model Object",
            "value": {
                "actionGroup": {
                    "_default0_list": true,
                    "_default1_show": true,
                    "_default2_new_create": true,
                    "_default3_edit_update": true,
                    "_default4_delete": true,
                    "customActions": [
                        "download"
                    ]
                },
                "name": "Event",
                "objectsettings": {
                    "addDeletedField": true,
                    "addHiddenField": true,
                    "addStarttimeEndtimeFields": true,
                    "aggregateRoot": true,
                    "categorizable": true,
                    "description": "",
                    "mapToTable": "",
                    "parentClass": "",
                    "sorting": true,
                    "type": "Entity",
                    "uid": "67563462794"
                },
                "propertyGroup": {
                    "properties": [
                        {
                            "allowedFileTypes": "",
                            "maxItems": "1",
                            "propertyDescription": "",
                            "propertyIsExcludeField": true,
                            "propertyIsRequired": false,
                            "propertyName": "title",
                            "propertyType": "String",
                            "uid": "1119654530558"
                        },
                        {
                            "allowedFileTypes": "",
                            "maxItems": "1",
                            "propertyDescription": "",
                            "propertyIsExcludeField": true,
                            "propertyIsRequired": false,
                            "propertyName": "text",
                            "propertyType": "RichText",
                            "uid": "973762336683"
                        },
                        {
                            "allowedFileTypes": "",
                            "maxItems": "1",
                            "propertyDescription": "",
                            "propertyIsExcludeField": true,
                            "propertyIsRequired": false,
                            "propertyName": "startDate",
                            "propertyType": "DateTime",
                            "uid": "112595423477"
                        },
                        {
                            "allowedFileTypes": "",
                            "maxItems": "1",
                            "propertyDescription": "",
                            "propertyIsExcludeField": true,
                            "propertyIsRequired": false,
                            "propertyName": "endDate",
                            "propertyType": "DateTime",
                            "uid": "657000148772"
                        },
                        {
                            "allowedFileTypes": "",
                            "maxItems": "1",
                            "propertyDescription": "",
                            "propertyIsExcludeField": true,
                            "propertyIsRequired": false,
                            "propertyName": "city",
                            "propertyType": "String",
                            "uid": "1187371345229"
                        },
                        {
                            "allowedFileTypes": "",
                            "maxItems": "1",
                            "propertyDescription": "",
                            "propertyIsExcludeField": true,
                            "propertyIsRequired": false,
                            "propertyName": "price",
                            "propertyType": "Float",
                            "uid": "466457286776"
                        },
                        {
                            "allowedFileTypes": "",
                            "maxItems": "1",
                            "propertyDescription": "",
                            "propertyIsExcludeField": true,
                            "propertyIsRequired": false,
                            "propertyName": "hotel",
                            "propertyType": "String",
                            "uid": "1332852735857"
                        },
                        {
                            "allowedFileTypes": "",
                            "maxItems": "1",
                            "propertyDescription": "",
                            "propertyIsExcludeField": true,
                            "propertyIsRequired": false,
                            "propertyName": "dressCode",
                            "propertyType": "String",
                            "uid": "256189582711"
                        },
                        {
                            "allowedFileTypes": "",
                            "maxItems": "99999",
                            "propertyDescription": "",
                            "propertyIsExcludeField": true,
                            "propertyIsRequired": false,
                            "propertyName": "downloads",
                            "propertyType": "File",
                            "uid": "291905651774"
                        },
                        {
                            "allowedFileTypes": "",
                            "maxItems": "99999",
                            "propertyDescription": "",
                            "propertyIsExcludeField": true,
                            "propertyIsRequired": false,
                            "propertyName": "componentmodules",
                            "propertyType": "Select",
                            "uid": "722856972720"
                        }
                    ]
                },
                "relationGroup": {
                    "relations": [
                        {
                            "foreignRelationClass": "",
                            "lazyLoading": false,
                            "propertyIsExcludeField": true,
                            "relationDescription": "",
                            "relationName": "partner",
                            "relationType": "manyToMany",
                            "relationWire": "[wired]",
                            "renderType": "selectSingleBox",
                            "uid": "546849031465"
                        }
                    ]
                }
            }
        },
        {
            "config": {
                "position": [
                    573,
                    70
                ]
            },
            "name": "New Model Object",
            "value": {
                "actionGroup": {
                    "_default0_list": true,
                    "_default1_show": true,
                    "_default2_new_create": false,
                    "_default3_edit_update": false,
                    "_default4_delete": false,
                    "customActions": []
                },
                "name": "Pilar",
                "objectsettings": {
                    "addDeletedField": true,
                    "addHiddenField": true,
                    "addStarttimeEndtimeFields": true,
                    "aggregateRoot": false,
                    "categorizable": false,
                    "description": "",
                    "mapToTable": "",
                    "parentClass": "",
                    "sorting": false,
                    "type": "Entity",
                    "uid": "1447847349817"
                },
                "propertyGroup": {
                    "properties": [
                        {
                            "allowedFileTypes": "",
                            "maxItems": "1",
                            "propertyDescription": "",
                            "propertyIsExcludeField": true,
                            "propertyIsRequired": false,
                            "propertyName": "name",
                            "propertyType": "String",
                            "uid": "465012146365"
                        }
                    ]
                },
                "relationGroup": {
                    "relations": [
                        {
                            "foreignRelationClass": "",
                            "lazyLoading": false,
                            "propertyIsExcludeField": true,
                            "relationDescription": "",
                            "relationName": "formats",
                            "relationType": "zeroToMany",
                            "relationWire": "[wired]",
                            "renderType": "selectSingle",
                            "uid": "824128419980"
                        }
                    ]
                }
            }
        },
        {
            "config": {
                "position": [
                    725,
                    549
                ]
            },
            "name": "New Model Object",
            "value": {
                "actionGroup": {
                    "_default0_list": true,
                    "_default1_show": true,
                    "_default2_new_create": false,
                    "_default3_edit_update": false,
                    "_default4_delete": false,
                    "customActions": []
                },
                "name": "Partner",
                "objectsettings": {
                    "addDeletedField": true,
                    "addHiddenField": true,
                    "addStarttimeEndtimeFields": true,
                    "aggregateRoot": true,
                    "categorizable": false,
                    "description": "",
                    "mapToTable": "",
                    "parentClass": "",
                    "sorting": true,
                    "type": "Entity",
                    "uid": "1293987451428"
                },
                "propertyGroup": {
                    "properties": [
                        {
                            "allowedFileTypes": "",
                            "maxItems": "1",
                            "propertyDescription": "",
                            "propertyIsExcludeField": true,
                            "propertyIsRequired": false,
                            "propertyName": "name",
                            "propertyType": "String",
                            "uid": "579849237415"
                        }
                    ]
                },
                "relationGroup": {
                    "relations": []
                }
            }
        },
        {
            "config": {
                "position": [
                    1244,
                    28
                ]
            },
            "name": "New Model Object",
            "value": {
                "actionGroup": {
                    "_default0_list": true,
                    "_default1_show": true,
                    "_default2_new_create": false,
                    "_default3_edit_update": false,
                    "_default4_delete": false,
                    "customActions": []
                },
                "name": "FormatType",
                "objectsettings": {
                    "addDeletedField": true,
                    "addHiddenField": true,
                    "addStarttimeEndtimeFields": true,
                    "aggregateRoot": true,
                    "categorizable": false,
                    "description": "",
                    "mapToTable": "",
                    "parentClass": "",
                    "sorting": true,
                    "type": "Entity",
                    "uid": "102049391692"
                },
                "propertyGroup": {
                    "properties": [
                        {
                            "allowedFileTypes": "",
                            "maxItems": "1",
                            "propertyDescription": "",
                            "propertyIsExcludeField": true,
                            "propertyIsRequired": false,
                            "propertyName": "name",
                            "propertyType": "String",
                            "uid": "722239261996"
                        }
                    ]
                },
                "relationGroup": {
                    "relations": [
                        {
                            "foreignRelationClass": "",
                            "lazyLoading": false,
                            "propertyIsExcludeField": true,
                            "relationDescription": "",
                            "relationName": "event",
                            "relationType": "manyToMany",
                            "relationWire": "[wired]",
                            "renderType": "selectSingleBox",
                            "uid": "1088849600588"
                        }
                    ]
                }
            }
        }
    ],
    "properties": {
        "backendModules": [],
        "description": "",
        "emConf": {
            "category": "plugin",
            "custom_category": "",
            "dependsOn": "typo3 => 8.6.0-8.9.99\n",
            "disableLocalization": false,
            "disableVersioning": true,
            "skipGenerateDocumentationTemplate": true,
            "sourceLanguage": "en",
            "state": "alpha",
            "targetVersion": "8.6.0-8.6.99",
            "version": "1.0.0"
        },
        "extensionKey": "cc_events",
        "name": "Corporate Campus",
        "originalExtensionKey": "cc_events",
        "originalVendorName": "Netfed",
        "persons": [],
        "plugins": [
            {
                "actions": {
                    "controllerActionCombinations": "Event => list,show,download",
                    "noncacheableActions": "Event => list,show,download",
                    "switchableActions": "List\nEvent->list;Event->show;\nShow\nEvent->show;Event->list;\nDownload\nEvent->download;"
                },
                "key": "events",
                "name": "Events"
            }
        ],
        "vendorName": "Netfed"
    },
    "wires": [
        {
            "src": {
                "moduleId": 1,
                "terminal": "relationWire_0",
                "uid": "824128419980"
            },
            "tgt": {
                "moduleId": 3,
                "terminal": "SOURCES",
                "uid": "102049391692"
            }
        },
        {
            "src": {
                "moduleId": 3,
                "terminal": "relationWire_0",
                "uid": "1088849600588"
            },
            "tgt": {
                "moduleId": 0,
                "terminal": "SOURCES",
                "uid": "67563462794"
            }
        },
        {
            "src": {
                "moduleId": 0,
                "terminal": "relationWire_0",
                "uid": "546849031465"
            },
            "tgt": {
                "moduleId": 2,
                "terminal": "SOURCES",
                "uid": "1293987451428"
            }
        }
    ],
    "log": {
        "last_modified": "2017-07-21 03:09",
        "extension_builder_version": "8.6.0",
        "be_user": " (2)"
    }
}